Chapter 3 CTPP Case Studies | NCHRP 08-123: Census Transportation Data Field Guide for Transportation Applications
…
stategeo <- setDT(readRDS("data/state_geoids.RDS")) 

## Merge the two files

# Sort by NAME
setkey(A101201,NAME)
setkey(stategeo,NAME)

# Now merge the files
A101201A <- stategeo[A101201]

# View the resulting data frame
tibble(A101201A)
#> # A tibble: 3,378 x 6
#>    GEOID NAME   Age       Minority       Output   Population
#>    <chr> <chr>  <chr>     <chr>          <chr>         <int>
#>  1 01    Alaba~ Total, a~ Total persons  Estimate    4841165
#>  2 01    Alaba~ Total, a~ White alone, ~ Estimate    3204335
#>  3 01    Alaba~ Total, a~ White alone, ~ Margin ~        642
#>  4 01    Alaba~ Total, a~ Other          Estimate    1636830
#>  5 01    Alaba~ Total, a~ Other          Margin ~        642
#>  6 01    Alaba~ Age 0 to~ Total persons  Estimate     976860
#>  7 01    Alaba~ Age 0 to~ Total persons  Margin ~       1377
#>  8 01    Alaba~ Age 0 to~ White alone, ~ Estimate     570015
#>  9 01    Alaba~ Age 0 to~ White alone, ~ Margin ~       1114
#> 10 01    Alaba~ Age 0 to~ Other          Estimate     406845
#> # ... with 3,368 more rows
…
# Read in B106202 (Mean Travel Time by Means of Transportation)
mot <- read_csv("data/B106202.csv")

# Filter the dataset to include only Total Means of Transportation
mottal <- mot %>% filter(MOT=='Total, means of transportation')

# The Mean Travel Time is read in a string variable and it is converted to a numeric variable
mottal$mtt <- as.numeric(as.character(mottal$MeanTT))

# Delete the string variable
mottal <- subset(mottal,select=-c(MeanTT))

# View the resulting dataset
tibble(mottal)
#> # A tibble: 134 x 4
#>    NAME                MOT                     Output    mtt
#>    <chr>               <chr>                   <chr>   <dbl>
#>  1 Alachua County, Fl~ Total, means of transp~ Estima~  20.9
#>  2 Alachua County, Fl~ Total, means of transp~ MOE       0.5
#>  3 Baker County, Flor~ Total, means of transp~ Estima~  29.9
#>  4 Baker County, Flor~ Total, means of transp~ MOE       1.8
#>  5 Bay County, Florida Total, means of transp~ Estima~  22.8
#>  6 Bay County, Florida Total, means of transp~ MOE       0.8
#>  7 Bradford County, F~ Total, means of transp~ Estima~  32.2
#>  8 Bradford County, F~ Total, means of transp~ MOE       3.2
#>  9 Brevard County, Fl~ Total, means of transp~ Estima~  24.2
#> 10 Brevard County, Fl~ Total, means of transp~ MOE       0.4
#> # ... with 124 more rows

# This step converts the data from long format to wide format and gets one record per county
mottal_l <- spread(mottal,Output,mtt)

# View the resulting dataset
tibble(mottal_l)
#> # A tibble: 67 x 4
#>    NAME                MOT                    Estimate   MOE
#>    <chr>               <chr>                     <dbl> <dbl>
#>  1 Alachua County, Fl~ Total, means of trans~     20.9   0.5
#>  2 Baker County, Flor~ Total, means of trans~     29.9   1.8
#>  3 Bay County, Florida Total, means of trans~     22.8   0.8
#>  4 Bradford County, F~ Total, means of trans~     32.2   3.2
#>  5 Brevard County, Fl~ Total, means of trans~     24.2   0.4
#>  6 Broward County, Fl~ Total, means of trans~     28     0.2
#>  7 Calhoun County, Fl~ Total, means of trans~     28.1   2.2
#>  8 Charlotte County, ~ Total, means of trans~     24.1   0.8
#>  9 Citrus County, Flo~ Total, means of trans~     25.3   1  
#> 10 Clay County, Flori~ Total, means of trans~     33.5   0.7
#> # ... with 57 more rows

# Read in the Geography Files
fl <- readRDS("data/FL_geos.RDS")

# Merge the geometry data with the mean travel time estimates
motfl <- merge(fl,mottal_l)

# View the resulting dataset
tibble(motfl)
#> # A tibble: 67 x 6
#>    NAME  GEOID MOT   Estimate   MOE
#>    <chr> <chr> <chr>    <dbl> <dbl>
#>  1 Alac~ 12001 Tota~     20.9   0.5
#>  2 Bake~ 12003 Tota~     29.9   1.8
#>  3 Bay ~ 12005 Tota~     22.8   0.8
#>  4 Brad~ 12007 Tota~     32.2   3.2
#>  5 Brev~ 12009 Tota~     24.2   0.4
#>  6 Brow~ 12011 Tota~     28     0.2
#>  7 Calh~ 12013 Tota~     28.1   2.2
#>  8 Char~ 12015 Tota~     24.1   0.8
#>  9 Citr~ 12017 Tota~     25.3   1  
#> 10 Clay~ 12019 Tota~     33.5   0.7
#> # ... with 57 more rows, and 1 more variable:
#> #   geometry <MULTIPOLYGON [°]>
…
